[
    {
        "id": 1,
        "name": "home",
        "position": 1,
        "place": 1,
        "auth": 1,
        "url": "",
        "status": "A"
    },
    {
        "id": 2,
        "name": "recetas",
        "position": 1,
        "place": 2,
        "auth": 1,
        "url": "",
        "status": "A"
    },
    {
        "id": 3,
        "name": "creador de recetas",
        "position": 1,
        "place": 3,
        "auth": 2,
        "url": "",
        "status": "A"
    },
    {
        "id": 4,
        "name": "login",
        "position": 2,
        "place": 4,
        "auth": 0,
        "url": "",
        "status": "A"
    },
    {
        "id": 5,
        "name": "registro",
        "position": 2,
        "place": 5,
        "auth": 0,
        "url": "",
        "status": "A"
    }
]